ii  build-essential                                 12.4ubuntu1                                 amd64        Informational list of build-essential packages
ii  libmariadbclient-dev                            1:10.1.29-6                                 amd64        MariaDB database development files
ii  libpython-dev:amd64                             2.7.15~rc1-1                                amd64        header files and a static library for Python (default)
ii  python-dev                                      2.7.15~rc1-1                                amd64        header files and a static library for Python (default)
